movieid,moviename,year,genres
7056,Chasing Liberty,2004,Comedy|Romance
7057,My Baby's Daddy,2004,Comedy
7060,Along Came Polly,2004,Comedy|Romance
7061,Teacher's Pet,2004,Animation|Children
7062,Torque,2004,Action|Crime
7142,Win a Date with Tad Hamilton!,2004,Comedy|Romance
7146,You Got Served,2004,Drama|Musical
7148,Barbershop 2: Back in Business,2004,Comedy
7180,50 First Dates,2004,Comedy|Romance
7181,Welcome to Mooseport,2004,Comedy
7202,Against the Ropes,2004,Comedy|Drama
7203,Confessions of a Teenage Drama Queen,2004,Comedy
7204,Eurotrip,2004,Adventure|Comedy
7206,Club Dread,2004,Comedy|Horror
7207,Dirty Dancing: Havana Nights,2004,Romance
7211,Hidalgo,2004,Action|Adventure|Drama|Western
7212,Starsky & Hutch,2004,Action|Comedy|Crime
7232,Agent Cody Banks 2: Destination London,2004,Action|Adventure|Children|Comedy
7234,Secret Window,2004,Mystery|Thriller
7235,Spartan,2004,Thriller
7247,Dawn of the Dead,2004,Action|Drama|Horror|Thriller
7248,Eternal Sunshine of the Spotless Mind,2004,Comedy|Drama|Romance|Sci-Fi
7249,Taking Lives,2004,Crime|Drama|Thriller
7253,Jersey Girl,2004,Comedy|Drama|Romance
7260,Hellboy,2004,Action|Adventure|Fantasy|Sci-Fi
7261,Home on the Range,2004,Animation|Children|Comedy|Musical|Western
7263,Walking Tall,2004,Action
7265,Johnson Family Vacation,2004,Comedy
7267,Ella Enchanted,2004,Comedy|Fantasy|Romance
7308,Connie and Carla,2004,Comedy
7309,Kill Bill: Vol. 2,2004,Action|Drama|Thriller
7315,13 Going on 30,2004,Comedy|Drama|Fantasy|Romance
7316,Man on Fire,2004,Action|Crime|Drama|Mystery|Thriller
7317,Clifford's Really Big Movie,2004,Animation|Children
7320,Godsend,2004,Drama|Fantasy|Horror|Thriller
7321,Laws of Attraction,2004,Comedy|Romance
7322,Mean Girls,2004,Comedy
7325,Van Helsing,2004,Action|Adventure|Fantasy|Horror
7749,Raising Helen,2004,Comedy|Drama
7750,Soul Plane,2004,Comedy
7753,Saved!,2004,Comedy|Drama
7755,Harry Potter and the Prisoner of Azkaban,2004,Adventure|Children|Fantasy
7756,Mindhunters,2004,Action|Crime|Horror|Mystery|Thriller
7763,Napoleon Dynamite,2004,Comedy
7815,Super Size Me,2004,Documentary
7852,Around the World in 80 Days,2004,Adventure|Comedy
7854,Dodgeball: A True Underdog Story,2004,Comedy
7856,Dear Frankie,2004,Drama
7857,White Chicks,2004,Action|Comedy|Crime
7861,De-Lovely,2004,Drama|Musical
7920,Fahrenheit 9/11,2004,Documentary
7934,Spider-Man 2,2004,Action|Adventure|Sci-Fi
7938,King Arthur,2004,Action|Adventure|Drama|War
7939,Anchorman: The Legend of Ron Burgundy,2004,Comedy
7940,Sleepover,2004,Comedy
7942,"I, Robot",2004,Action|Adventure|Sci-Fi|Thriller
7964,Catwoman,2004,Action|Crime|Fantasy
8080,Thunderbirds,2004,Action|Adventure|Fantasy|Sci-Fi
8082,Garden State,2004,Comedy|Drama|Romance
8096,Collateral,2004,Action|Crime|Drama|Thriller
8097,Little Black Book,2004,Comedy|Romance
8108,AVP: Alien vs. Predator,2004,Action|Horror|Sci-Fi|Thriller
8111,We Don't Live Here Anymore,2004,Drama
8112,Without a Paddle,2004,Comedy
8113,Exorcist: The Beginning,2004,Drama|Horror|Thriller
8127,Benji: Off the Leash!,2004,Children|Drama
8128,Anacondas: The Hunt for the Blood Orchid,2004,Adventure|Drama|Horror|Sci-Fi|Thriller
8129,Suspect Zero,2004,Crime|Drama|Horror|Thriller
8131,Vanity Fair,2004,Drama|Romance
8133,Paparazzi,2004,Drama|Thriller
8134,Wicker Park,2004,Drama|Romance|Thriller
8139,Seeing Other People,2004,Comedy
8157,SuperBabies: Baby Geniuses 2,2004,Comedy
8158,Cellular,2004,Action|Crime|Drama|Mystery|Thriller
8159,Resident Evil: Apocalypse,2004,Action|Horror|Sci-Fi|Thriller
8160,Criminal,2004,Comedy|Drama
8162,Sky Captain and the World of Tomorrow,2004,Action|Adventure|Sci-Fi
8163,Wimbledon,2004,Comedy|Romance
8165,Head in the Clouds,2004,Drama|Romance|War
8166,First Daughter,2004,Comedy|Romance
8171,Shaun of the Dead,2004,Comedy|Horror|Romance
8204,Shark Tale,2004,Animation|Children|Comedy
8205,Ladder 49,2004,Action|Drama|Thriller
8207,I Heart Huckabees,2004,Comedy|Drama
8208,Raise Your Voice,2004,Drama|Romance
8210,Around the Bend,2004,Drama
8211,Primer,2004,Drama|Mystery|Sci-Fi|Thriller
8212,Stage Beauty,2004,Drama
8214,Team America: World Police,2004,Action|Adventure|Animation|Comedy|Drama
8215,Eulogy,2004,Comedy|Crime|Drama
8216,P.S.,2004,Comedy|Drama|Fantasy|Romance
8234,Friday Night Lights,2004,Action|Drama
8240,Being Julia,2004,Comedy|Drama
8243,Surviving Christmas,2004,Comedy
8245,Alfie,2004,Comedy|Drama|Romance
8246,Sideways,2004,Adventure|Comedy|Drama|Romance
8248,Vera Drake,2004,Drama
8252,Undertow,2004,Crime|Drama|Thriller
8253,Enduring Love,2004,Drama
8254,Saw,2004,Crime|Horror|Mystery|Thriller
8259,Fade to Black,2004,Documentary
8263,Kinsey,2004,Drama
8264,Seed of Chucky,2004,Comedy|Horror
8265,After the Sunset,2004,Action|Adventure|Comedy|Crime|Thriller
8266,Bridget Jones: The Edge of Reason,2004,Comedy|Drama|Romance
8267,Finding Neverland,2004,Drama
8269,National Treasure,2004,Action|Adventure|Drama|Mystery|Thriller
8274,Alexander,2004,Action|Adventure|Drama|War
8275,Christmas with the Kranks,2004,Children|Comedy
8281,Ocean's Twelve,2004,Action|Comedy|Crime|Thriller
8282,Blade: Trinity,2004,Action|Fantasy|Horror|Thriller
8284,Bush's Brain,2004,Documentary
8315,Control Room,2004,Documentary|War
8652,2046,2004,Drama|Romance|Sci-Fi
8671,Blueberry,2004,Adventure|Western
8688,Immortel (ad vitam),2004,Action|Adventure|Fantasy|Sci-Fi
8712,Unstoppable,2004,Action|Adventure|Comedy|Drama|Thriller
8726,Millions,2004,Children|Comedy|Crime|Drama|Fantasy
8731,Spanglish,2004,Comedy|Drama|Romance
8738,Touch of Pink,2004,Comedy|Drama|Romance
8741,Layer Cake,2004,Action|Crime|Drama|Thriller
8744,Flight of the Phoenix,2004,Action|Adventure
8745,Mean Creek,2004,Drama|Thriller
8748,Machuca,2004,Crime|Drama
8753,She Hate Me,2004,Comedy|Drama
8755,In My Father's Den,2004,Drama
8757,Metallica: Some Kind of Monster,2004,Documentary
8758,Going the Distance,2004,Comedy
8762,DiG!,2004,Documentary
8764,Word Wars,2004,Comedy|Documentary|Drama
8765,When Will I Be Loved,2004,Drama
8768,Casshern,2004,Action|Drama|Fantasy|Sci-Fi
8772,Million Dollar Baby,2004,Drama
8777,Hotel Rwanda,2004,Drama|War
8784,Beyond the Sea,2004,Drama|Musical
8786,In Good Company,2004,Comedy|Drama
8787,Meet the Fockers,2004,Comedy
8791,Fat Albert,2004,Comedy|Fantasy
8793,In the Realms of the Unreal,2004,Animation|Documentary
8831,Imaginary Heroes,2004,Comedy|Drama
8869,Employee of the Month,2004,Comedy|Drama
8900,Bride & Prejudice,2004,Comedy|Musical|Romance
8926,5x2,2004,Drama|Romance
8937,Walk on Water,2004,Drama|Thriller
8973,Cube Zero,2004,Horror|Mystery|Sci-Fi|Thriller
8979,Melinda and Melinda,2004,Comedy|Drama
8983,D.E.B.S.,2004,Action|Comedy
9064,House of D,2004,Drama
9065,Palindromes,2004,Adventure|Comedy|Drama
9079,Mysterious Skin,2004,Drama|Mystery
9102,9 Songs,2004,Drama|Romance
9104,Simon,2004,Comedy|Drama
9107,Somersault,2004,Drama
9113,Saving Face,2004,Comedy|Drama|Romance
9125,It's All Gone Pete Tong,2004,Comedy|Drama|Musical
9130,My Summer of Love,2004,Drama|Romance
9131,Heights,2004,Drama
9134,Saint Ralph,2004,Comedy|Drama
9203,My Date with Drew,2004,Comedy|Documentary|Romance
9266,Darwin's Nightmare,2004,Documentary
9291,C.S.A.: The Confederate States of America,2004,Comedy|Drama
9323,Dead Man's Shoes,2004,Crime|Thriller
10528,Zen Noir,2004,Comedy|Drama|Mystery
8779,Charlie and the Chocolate Factory,2005,Adventure|Children|Comedy|Fantasy
8794,White Noise,2005,Drama|Mystery|Romance|Thriller
8842,Elektra,2005,Action|Adventure|Crime|Drama
8843,Racing Stripes,2005,Children|Comedy
8844,Coach Carter,2005,Drama
8860,Assault on Precinct 13,2005,Action|Crime|Drama|Thriller
8861,Are We There Yet?,2005,Children|Comedy
8862,Alone in the Dark,2005,Action|Horror|Sci-Fi|Thriller
8864,Aliens of the Deep,2005,Documentary|IMAX
8865,Boogeyman,2005,Drama|Horror|Mystery|Thriller
8897,Pooh's Heffalump Movie,2005,Animation|Children
8898,Inside Deep Throat,2005,Documentary
8901,Constantine,2005,Action|Horror|Thriller
8902,Son of the Mask,2005,Action|Adventure|Comedy|Fantasy
8930,Diary of a Mad Black Woman,2005,Comedy|Drama
8931,Cursed,2005,Horror|Thriller
8935,Be Cool,2005,Comedy|Crime|Musical
8938,Hostage,2005,Action|Crime|Drama|Thriller
8939,Robots,2005,Adventure|Animation|Children|Comedy|Fantasy|Sci-Fi
8978,Ice Princess,2005,Children|Comedy|Drama
8981,Miss Congeniality 2: Armed and Fabulous,2005,Adventure|Comedy|Crime
8982,Guess Who,2005,Comedy|Romance
9016,Sin City,2005,Action|Crime|Film-Noir|Thriller
9020,Sahara,2005,Action|Adventure|Comedy
9021,Fever Pitch,2005,Comedy|Romance
9073,xXx: State of the Union,2005,Action|Adventure|Crime|Thriller
9075,Kingdom of Heaven,2005,Action|Drama|Romance|War
9076,House of Wax,2005,Horror|Thriller
9096,Star Wars: Episode III - Revenge of the Sith,2005,Action|Adventure|Fantasy|Sci-Fi
9097,Kicking & Screaming,2005,Comedy
9098,Monster-in-Law,2005,Comedy|Romance
9111,Dominion: Prequel to the Exorcist,2005,Horror|Thriller
9114,Cinderella Man,2005,Drama|Romance
9116,Lords of Dogtown,2005,Action|Comedy|Drama
9119,Mr. & Mrs. Smith,2005,Action|Adventure|Comedy|Romance|Thriller
9123,Parineeta,2005,Drama|Musical|Romance
9128,Batman Begins,2005,Action|Crime
9137,Land of the Dead,2005,Action|Horror|Thriller
9138,Bewitched,2005,Comedy|Fantasy|Romance
9140,Me and You and Everyone We Know,2005,Comedy|Drama
9147,War of the Worlds,2005,Action|Adventure|Sci-Fi|Thriller
9151,Rebound,2005,Comedy
9154,Fantastic Four,2005,Action|Adventure|Fantasy|Sci-Fi
9158,Wedding Crashers,2005,Comedy|Romance
9166,Hustle & Flow,2005,Crime|Drama
9170,Bad News Bears,2005,Children|Comedy
9174,Sky High,2005,Action|Adventure|Children|Comedy
9175,Stealth,2005,Action|Adventure|Sci-Fi|Thriller
9176,Must Love Dogs,2005,Comedy|Romance
9180,Serenity,2005,Action|Adventure|Sci-Fi|Western
9181,Broken Flowers,2005,Comedy|Drama
9188,Junebug,2005,Comedy|Drama
9189,Deuce Bigalow: European Gigolo,2005,Comedy
9191,Four Brothers,2005,Action|Crime|Drama
9193,Asylum,2005,Romance|Thriller
9194,Pretty Persuasion,2005,Comedy|Drama
9195,Grizzly Man,2005,Documentary
9204,Duma,2005,Adventure|Drama
9206,Red Eye,2005,Drama|Thriller
9211,Valiant,2005,Adventure|Animation|Children|Comedy|Fantasy|War
9215,Undiscovered,2005,Comedy|Drama|Romance
9220,Just Like Heaven,2005,Comedy|Romance
9222,Lord of War,2005,Action|Crime|Drama|Romance|Thriller|War
9223,Venom,2005,Horror|Thriller
9225,Everything Is Illuminated,2005,Adventure|Comedy|Drama
9226,Thumbsucker,2005,Comedy|Drama
9237,Doom,2005,Action|Horror|Sci-Fi
9238,Domino,2005,Crime|Drama|Thriller
9245,Flightplan,2005,Action|Drama|Thriller
9246,Corpse Bride,2005,Animation|Comedy|Fantasy|Musical|Romance
9249,Oliver Twist,2005,Drama
9251,Capote,2005,Crime|Drama
9254,Roll Bounce,2005,Comedy|Drama|Romance
9258,MirrorMask,2005,Adventure|Children|Drama|Fantasy
9263,Kiss Kiss Bang Bang,2005,Action|Comedy|Mystery|Thriller
9270,Goal!,2005,Drama
9273,Factotum,2005,Drama
9275,In Her Shoes,2005,Comedy|Drama
9279,Two for the Money,2005,Drama
9280,Separate Lies,2005,Drama|Romance
9282,Brokeback Mountain,2005,Drama|Romance
9283,Elizabethtown,2005,Comedy|Drama|Romance
9284,North Country,2005,Drama
9285,"Good Night, and Good Luck.",2005,Crime|Drama|Film-Noir
9286,Dreamer: Inspired by a True Story,2005,Children|Drama
9297,Shopgirl,2005,Comedy|Drama|Romance
9299,Where the Truth Lies,2005,Drama|Thriller
9308,Saw II,2005,Horror|Thriller
9309,Prime,2005,Comedy|Drama|Romance
9315,Manderlay,2005,Drama
9316,Nine Lives,2005,Drama
9319,Revolver,2005,Crime|Drama|Thriller
9320,Jarhead,2005,Action|Drama|War
9322,Chicken Little,2005,Action|Adventure|Animation|Children|Comedy|Sci-Fi
9327,Get Rich or Die Tryin',2005,Action|Crime|Drama|Musical
9328,Just Friends,2005,Comedy|Romance
9329,Syriana,2005,Drama|Thriller
9332,Pride & Prejudice,2005,Drama|Romance
9333,Wolf Creek,2005,Crime|Horror|Mystery|Thriller
9336,Harry Potter and the Goblet of Fire,2005,Adventure|Fantasy|Thriller
9338,Walk the Line,2005,Drama|Musical|Romance
9339,Rent,2005,Drama|Musical|Romance
9342,C.R.A.Z.Y.,2005,Comedy|Drama
9343,Lonesome Jim,2005,Drama|Romance
9344,Sarah Silverman: Jesus Is Magic,2005,Comedy|Musical
9345,Bee Season,2005,Drama
9346,Breakfast on Pluto,2005,Comedy|Drama
9357,Match Point,2005,Crime|Drama|Romance
9361,Paradise Now,2005,Drama|Thriller|War
9364,King Kong,2005,Action|Adventure|Drama|Fantasy|Thriller
9365,Memoirs of a Geisha,2005,Drama|Romance
9373,Look Both Ways,2005,Drama
9374,Mozart and the Whale,2005,Comedy|Drama|Romance
9377,Munich,2005,Action|Crime|Drama|Thriller
9379,Transamerica,2005,Adventure|Comedy|Drama
9380,Rumor Has It...,2005,Comedy|Drama|Romance
9381,Cheaper by the Dozen 2,2005,Adventure|Comedy
9382,Fun with Dick and Jane,2005,Comedy|Crime
9384,Casanova,2005,Action|Adventure|Comedy|Drama|Romance
9387,Dirty Love,2005,Comedy|Romance
9389,Keeping Mum,2005,Comedy|Drama|Film-Noir
9399,BloodRayne,2005,Action|Fantasy|Horror
9400,Hostel,2005,Horror
9408,Looking for Comedy in the Muslim World,2005,Comedy
9421,Nanny McPhee,2005,Children|Comedy|Fantasy
9426,Imagine Me & You,2005,Comedy|Drama|Romance
9437,Winter Passing,2005,Drama
9461,Tsotsi,2005,Crime|Drama
9482,Brick,2005,Crime|Drama|Film-Noir|Mystery
9483,Evil Aliens,2005,Comedy|Horror|Sci-Fi
9497,Hard Candy,2005,Drama|Thriller
9504,Kinky Boots,2005,Comedy|Drama
9512,Down in the Valley,2005,Drama|Romance
9525,On a Clear Day,2005,Drama
9547,Stoned,2005,Drama
9552,Metal: A Headbanger's Journey,2005,Documentary
9563,Strangers with Candy,2005,Comedy
9570,End of the Spear,2005,Drama
9599,La Moustache,2005,Drama|Mystery|Thriller
9600,Tideland,2005,Drama|Fantasy|Thriller
9615,Angel-A,2005,Comedy|Drama|Fantasy|Romance
9619,Lassie,2005,Adventure|Children
9632,Trust the Man,2005,Comedy|Drama|Romance
9654,Conversations with Other Women,2005,Comedy|Drama|Romance
9667,Ellie Parker,2005,Comedy|Drama
9687,13 Tzameti,2005,Film-Noir|Thriller
9747,Sweet Land,2005,Drama|Fantasy
9761,Rosario Tijeras,2005,Crime|Drama|Romance
9815,2001 Maniacs,2005,Comedy|Horror
10390,Eve and the Fire Horse,2005,Drama
9401,Grandma's Boy,2006,Comedy
9403,Glory Road,2006,Drama
9404,Last Holiday,2006,Comedy
9407,Underworld: Evolution,2006,Action|Fantasy|Horror
9417,Bandidas,2006,Action|Comedy|Crime|Western
9419,Annapolis,2006,Drama
9420,Big Momma's House 2,2006,Action|Comedy|Crime
9422,Final Destination 3,2006,Horror|Mystery|Thriller
9429,Curious George,2006,Adventure|Animation|Children|Comedy
9430,Firewall,2006,Crime|Drama|Thriller
9432,When a Stranger Calls,2006,Horror|Thriller
9435,Neil Young: Heart of Gold,2006,Documentary|Musical
9436,Freedomland,2006,Crime|Drama
9438,Eight Below,2006,Action|Adventure|Drama
9439,Date Movie,2006,Comedy|Romance
9440,Running Scared,2006,Action|Crime|Thriller
9441,Madea's Family Reunion,2006,Comedy|Drama
9442,Doogal,2006,Animation|Children
9443,Ultraviolet,2006,Action|Sci-Fi|Thriller
9444,Just My Luck,2006,Comedy|Romance
9447,16 Blocks,2006,Crime|Thriller
9449,Failure to Launch,2006,Comedy|Romance
9455,Ask the Dust,2006,Drama|Romance
9457,She's the Man,2006,Comedy|Romance
9459,Find Me Guilty,2006,Comedy|Crime|Drama
9460,Inside Man,2006,Crime|Drama|Thriller
9462,Aquamarine,2006,Children|Comedy|Fantasy
9472,Take the Lead,2006,Drama
9476,Lucky Number Slevin,2006,Crime|Drama|Thriller
9478,Akeelah and the Bee,2006,Drama
9480,Stay Alive,2006,Horror|Sci-Fi|Thriller
9481,Basic Instinct 2,2006,Crime|Drama|Mystery|Thriller
9484,This Film Is Not Yet Rated,2006,Documentary
9486,Slither,2006,Comedy|Horror|Sci-Fi
9488,Phat Girlz,2006,Comedy
9489,Renaissance,2006,Action|Animation|Film-Noir|Sci-Fi|Thriller
9490,Friends with Money,2006,Comedy|Drama|Romance
9495,Hoot,2006,Children|Comedy
9496,Scary Movie 4,2006,Comedy|Horror
9502,Silent Hill,2006,Fantasy|Horror|Thriller
9503,American Dreamz,2006,Comedy|Drama
9506,Mission: Impossible III,2006,Action|Adventure|Thriller
9507,RV,2006,Action|Children|Comedy
9508,United 93,2006,Drama
9509,Stick It,2006,Comedy
9514,Over the Hedge,2006,Adventure|Animation|Children|Comedy
9515,Art School Confidential,2006,Comedy|Drama
9518,X-Men: The Last Stand,2006,Fantasy|Sci-Fi|Thriller
9520,Peaceful Warrior,2006,Drama
9521,Cars,2006,Animation|Children|Comedy|Fantasy
9528,Nacho Libre,2006,Comedy
9530,Click,2006,Comedy|Drama|Fantasy
9534,Pirates of the Caribbean: Dead Man's Chest,2006,Action|Adventure|Comedy|Fantasy
9535,"You, Me and Dupree",2006,Comedy
9536,Clerks II,2006,Comedy
9538,My Super Ex-Girlfriend,2006,Comedy|Fantasy|Romance
9540,Marie Antoinette,2006,Drama
9541,Who Killed the Electric Car?,2006,Documentary
9551,Garfield: A Tail of Two Kitties,2006,Animation|Children|Comedy
9554,Superman Returns,2006,Action|Adventure|Fantasy|Sci-Fi
9558,Little Miss Sunshine,2006,Comedy|Drama
9562,Babel,2006,Drama|Thriller
9566,Wordplay,2006,Documentary
9571,Monster House,2006,Adventure|Animation|Children|Comedy|Drama|Fantasy|Mystery
9573,Snakes on a Plane,2006,Action|Comedy|Horror|Thriller
9574,Scoop,2006,Comedy|Mystery
9575,Talladega Nights: The Ballad of Ricky Bobby,2006,Action|Comedy
9576,Night at the Museum,2006,Action|Comedy|Fantasy
9577,World Trade Center,2006,Drama
9578,Stranger Than Fiction,2006,Comedy|Drama|Fantasy|Romance
9579,Miami Vice,2006,Action|Crime|Drama|Thriller
9584,John Tucker Must Die,2006,Comedy|Romance
9587,Crank,2006,Action|Thriller
9595,Step Up,2006,Drama|Romance
9597,"Bon Cop, Bad Cop",2006,Action|Comedy|Crime|Thriller
9598,Half Nelson,2006,Drama
9602,Material Girls,2006,Children|Comedy|Drama
9603,Accepted,2006,Comedy
9609,Beerfest,2006,Comedy
9610,How to Eat Fried Worms,2006,Children|Drama
9611,Invincible,2006,Drama
9621,Crossover,2006,Action|Drama
9626,Severance,2006,Comedy|Horror|Thriller
9628,Hollywoodland,2006,Crime|Drama|Mystery|Thriller
9633,SherryBaby,2006,Drama
9634,Idiocracy,2006,Adventure|Comedy|Sci-Fi
9644,Gridiron Gang,2006,Drama
9650,Apocalypto,2006,Action|Adventure|Drama
9651,Flyboys,2006,Action|Adventure|Drama|War
9652,Jackass Number Two,2006,Comedy|Documentary
9653,All The King's Men,2006,Drama
9656,Borat: Cultural Learnings of America for Make Benefit Glorious Nation of Kazakhstan,2006,Comedy
9659,Open Season,2006,Adventure|Animation|Children|Comedy
9660,School for Scoundrels,2006,Comedy|Crime
9663,Employee of the Month,2006,Comedy
9665,Running With Scissors,2006,Comedy|Drama
9669,Man of the Year,2006,Comedy|Thriller
9671,Infamous,2006,Drama
9672,One Night with the King,2006,Drama
9676,Little Children,2006,Drama|Romance
9681,Shortbus,2006,Comedy|Drama|Romance
9682,Children of Men,2006,Action|Adventure|Drama|Sci-Fi|Thriller
9684,Flags of Our Fathers,2006,Drama|War
9685,Flicka,2006,Children|Drama
9688,Saw III,2006,Crime|Horror|Thriller
9689,Catch a Fire,2006,Drama|Thriller
9690,Death of a President,2006,Crime|Drama|Mystery|Thriller
9694,Flushed Away,2006,Animation|Comedy
9695,Perfume: The Story of a Murderer,2006,Crime|Drama|Thriller
9701,Shut Up & Sing,2006,Documentary
9704,For Your Consideration,2006,Comedy
9707,Casino Royale,2006,Action|Adventure|Thriller
9708,Happy Feet,2006,Adventure|Animation|Children|Comedy
9709,Let's Go to Prison,2006,Comedy
9711,Bobby,2006,Drama
9712,Deck the Halls,2006,Comedy
9713,10 Items or Less,2006,Comedy|Drama|Romance
9715,Snow Cake,2006,Drama
9717,Fast Food Nation,2006,Drama
9719,Tenacious D in The Pick of Destiny,2006,Adventure|Comedy|Musical
9722,Van Wilder 2: The Rise of Taj,2006,Comedy
9723,Turistas,2006,Adventure|Drama|Horror|Mystery|Thriller
9724,Blood Diamond,2006,Adventure|Crime|Drama|Thriller|War
9728,Charlotte's Web,2006,Children|Comedy|Drama|Fantasy
9729,Eragon,2006,Action|Adventure|Fantasy
9730,Rocky Balboa,2006,Action|Drama
9731,Fur: An Imaginary Portrait of Diane Arbus,2006,Drama|Fantasy|Romance
9734,We Are Marshall,2006,Drama
9737,Dreamgirls,2006,Drama|Musical
9740,Inland Empire,2006,Drama|Film-Noir|Horror|Mystery|Thriller
9742,Notes on a Scandal,2006,Drama
9743,DOA: Dead or Alive,2006,Action|Adventure
9748,Letters from Iwo Jima,2006,Drama|War
9749,Black Christmas,2006,Action|Horror|Thriller
9754,Miss Potter,2006,Drama
9759,Old Joy,2006,Drama
9760,Venus,2006,Drama|Romance
9777,Smokin' Aces,2006,Action|Crime|Drama|Thriller
9785,Cocaine Cowboys,2006,Documentary
9786,Lonely Hearts,2006,Crime|Drama|Thriller
9802,Black Snake Moan,2006,Drama|Romance
9805,Factory Girl,2006,Drama|Film-Noir
9809,Karla,2006,Crime|Drama|Thriller
9813,Breaking and Entering,2006,Drama
9814,Amazing Grace,2006,Drama|Romance
9824,Starter for 10,2006,Drama|Romance
9841,Jindabyne,2006,Crime|Drama|Mystery|Thriller
9854,Seraphim Falls,2006,Action|Adventure|Drama|War|Western
9857,Copying Beethoven,2006,Drama|Musical
9861,Goya's Ghosts,2006,Drama
9866,Puccini For Beginners,2006,Comedy|Romance
9871,Big Nothing,2006,Comedy|Crime|Thriller
9888,This Is England,2006,Drama
9889,Away from Her,2006,Drama|Romance
9907,Cashback,2006,Comedy|Drama|Romance
9922,Rescue Dawn,2006,Action|Adventure|Drama|War
9945,Driving Lessons,2006,Comedy|Drama
9946,First Snow,2006,Drama|Thriller
9977,Lady Chatterley,2006,Drama|Romance
9994,Bordertown,2006,Crime|Drama|Thriller
10015,Stephanie Daley,2006,Drama
10043,10th & Wolf,2006,Crime|Drama|Thriller
10046,I'm Reed Fish,2006,Comedy|Drama|Romance
10055,Black Sheep,2006,Comedy|Horror
10086,Southland Tales,2006,Comedy|Drama|Sci-Fi
10119,Wristcutters: A Love Story,2006,Comedy|Drama|Fantasy|Romance
10120,Vitus,2006,Drama
10206,Penelope,2006,Children|Comedy|Fantasy|Romance
10259,Klimt,2006,Drama
10275,Bella,2006,Drama|Romance
10278,Reprise,2006,Drama
10295,All the Boys Love Mandy Lane,2006,Horror|Mystery|Thriller
10343,Transylvania,2006,Drama
9739,Freedom Writers,2007,Drama
9752,Code Name: The Cleaner,2007,Action|Comedy|Crime
9753,Stomp the Yard,2007,Drama|Musical
9772,Bridge to Terabithia,2007,Adventure|Children|Fantasy
9775,Waitress,2007,Comedy|Drama|Romance
9778,Blood and Chocolate,2007,Drama|Fantasy|Horror|Romance
9779,Epic Movie,2007,Adventure|Comedy
9781,Because I Said So,2007,Comedy|Drama|Romance
9782,Hannibal Rising,2007,Drama|Horror|Thriller
9783,Norbit,2007,Comedy|Romance
9787,Ratatouille,2007,Animation|Children|Comedy|Fantasy
9797,Breach,2007,Drama|Thriller
9798,Daddy's Little Girls,2007,Comedy|Romance
9799,Music and Lyrics,2007,Comedy|Romance
9801,Reno 911!: Miami,2007,Comedy
9807,Hot Fuzz,2007,Action|Comedy|Crime
9816,Zodiac,2007,Crime|Drama|Thriller
9818,Wild Hogs,2007,Adventure|Comedy
9821,300,2007,Action|Fantasy|War
9828,Becoming Jane,2007,Drama|Romance
9831,I Think I Love My Wife,2007,Comedy|Drama|Romance
9833,Premonition,2007,Drama|Thriller
9834,Dead Silence,2007,Horror|Mystery|Thriller
9835,Reign Over Me,2007,Drama
9848,Blades of Glory,2007,Action|Comedy
9850,Grindhouse,2007,Action|Crime|Horror|Sci-Fi|Thriller
9853,Meet the Robinsons,2007,Action|Adventure|Animation|Children|Comedy|Sci-Fi
9855,Sunshine,2007,Adventure|Drama|Sci-Fi|Thriller
9862,Perfect Stranger,2007,Drama|Thriller
9863,Disturbia,2007,Drama|Thriller
9864,Pathfinder,2007,Action|Adventure|Drama|Thriller|War
9865,Aqua Teen Hunger Force Colon Movie Film for Theaters,2007,Animation|Comedy
9870,Fracture,2007,Crime|Drama|Mystery|Thriller
9872,Vacancy,2007,Horror|Thriller
9874,In the Land of Women,2007,Comedy|Drama|Romance
9875,Mr. Bean's Holiday,2007,Comedy
9880,Lucky You,2007,Comedy|Drama
9890,Knocked Up,2007,Comedy|Drama|Romance
9891,Hairspray,2007,Comedy|Drama|Musical
9892,28 Weeks Later,2007,Drama|Horror|Sci-Fi|Thriller|War
9893,Georgia Rule,2007,Comedy|Drama|Romance
9894,Delta Farce,2007,Action|Adventure|Comedy
9898,Pirates of the Caribbean: At World's End,2007,Action|Adventure|Comedy|Fantasy
9900,Mr. Brooks,2007,Crime|Drama|Thriller
9905,Eagle vs Shark,2007,Comedy
9908,Ocean's Thirteen,2007,Comedy|Crime|Drama|Thriller
9913,Hostel: Part II,2007,Crime|Horror|Thriller
9914,Paranoid Park,2007,Crime|Drama
9916,Surf's Up,2007,Action|Adventure|Animation|Children|Comedy
9918,Nancy Drew,2007,Adventure|Crime|Thriller
9927,In Search of a Midnight Kiss,2007,Comedy|Romance
9932,Sicko,2007,Documentary
9934,1408,2007,Drama|Horror|Thriller
9935,Death at a Funeral,2007,Comedy|Drama
9936,Live Free or Die Hard,2007,Action|Adventure|Crime|Thriller
9937,License to Wed,2007,Comedy|Romance
9938,Evening,2007,Drama
9939,Evan Almighty,2007,Comedy|Fantasy
9940,Transformers,2007,Action|Adventure|Sci-Fi|Thriller
9941,Captivity,2007,Thriller
9942,Harry Potter and the Order of the Phoenix,2007,Adventure|Drama|Fantasy|IMAX
9948,Across the Universe,2007,Drama|Musical|Romance|War
9949,Broken English,2007,Comedy|Drama|Romance
9952,Hot Rod,2007,Action|Comedy|Romance
9953,Stardust,2007,Adventure|Fantasy|Romance
9954,Who's Your Caddy?,2007,Comedy
9957,I Know Who Killed Me,2007,Crime|Drama|Thriller
9958,No Reservations,2007,Comedy|Drama|Romance
9960,Charlie Bartlett,2007,Comedy|Drama
9966,You Kill Me,2007,Comedy|Crime|Thriller
9969,Superbad,2007,Comedy
9971,Joshua,2007,Drama|Thriller
9972,Talk to Me,2007,Drama
9975,Rush Hour 3,2007,Action|Comedy|Crime|Thriller
9978,Balls of Fury,2007,Comedy
9979,Sydney White,2007,Comedy
9981,Rocket Science,2007,Comedy|Drama
9982,Daddy Day Camp,2007,Children|Comedy
9984,War,2007,Action|Thriller
9987,September Dawn,2007,Drama|Romance|Western
9989,Death Sentence,2007,Drama|Thriller
9990,2 Days in Paris,2007,Comedy|Drama|Romance
9997,Planet Terror,2007,Action|Adventure|Comedy|Crime|Horror|Thriller
9998,3:10 to Yuma,2007,Action|Crime|Drama|Western
9999,Shoot 'Em Up,2007,Action|Adventure|Thriller
10001,Atonement,2007,Drama|Romance|War
10002,My Winnipeg,2007,Documentary|Fantasy
10004,No End in Sight,2007,Documentary
10006,In the Valley of Elah,2007,Drama|Mystery
10008,December Boys,2007,Drama
10010,Eastern Promises,2007,Crime|Drama|Thriller
10011,Brooklyn Rules,2007,Crime|Drama|Romance
10018,Resident Evil: Extinction,2007,Action|Horror|Sci-Fi|Thriller
10020,Good Luck Chuck,2007,Comedy|Romance
10021,Into the Wild,2007,Adventure|Drama
10024,Feast of Love,2007,Drama|Romance
10025,Postal,2007,Action|Comedy|Horror|Thriller
10028,Dan in Real Life,2007,Comedy|Drama|Romance
10030,We Own the Night,2007,Crime|Drama
10031,Elizabeth: The Golden Age,2007,Drama
10032,Michael Clayton,2007,Drama|Thriller
10033,Sleuth,2007,Comedy|Drama|Mystery|Thriller
10034,Lars and the Real Girl,2007,Comedy|Drama
10035,30 Days of Night,2007,Horror|Thriller
10036,Rendition,2007,Drama|Thriller
10037,Things We Lost in the Fire,2007,Drama|Romance
10038,Reservation Road,2007,Drama|Thriller
10039,Gone Baby Gone,2007,Crime|Drama|Mystery
10048,Persepolis,2007,Animation|Drama
10052,Silk,2007,Adventure|Drama|Romance
10058,Saw IV,2007,Crime|Horror|Thriller
10065,King of California,2007,Comedy
10066,Martian Child,2007,Comedy|Drama
10067,American Gangster,2007,Crime|Drama|Thriller
10068,Bee Movie,2007,Animation|Comedy
10069,Before the Devil Knows You're Dead,2007,Crime|Drama|Thriller
10071,No Country for Old Men,2007,Crime|Drama|Thriller
10076,August Rush,2007,Drama|Musical
10081,Lions For Lambs,2007,Drama|Thriller|War
10082,Fred Claus,2007,Children|Comedy|Fantasy
10083,Beowulf,2007,Action|Adventure|Animation|Drama|Fantasy
10084,Mr. Magorium's Wonder Emporium,2007,Children|Comedy|Fantasy
10085,Love in the Time of Cholera,2007,Drama|Romance
10088,Rails & Ties,2007,Drama
10094,Enchanted,2007,Adventure|Animation|Children|Comedy|Fantasy|Musical|Romance
10096,This Christmas,2007,Comedy|Drama|Romance
10097,P2,2007,Horror|Thriller
10098,Om Shanti Om,2007,Action|Drama|Musical|Romance
10101,I Am Legend,2007,Action|Horror|Sci-Fi|Thriller
10102,Alvin and the Chipmunks,2007,Children|Comedy
10105,Margot at the Wedding,2007,Comedy|Drama
10109,Juno,2007,Drama|Romance
10110,My Blueberry Nights,2007,Drama|Romance
10112,Redacted,2007,Action|Crime|Drama|War
10113,Helvetica,2007,Documentary
10123,Sweeney Todd: The Demon Barber of Fleet Street,2007,Drama|Horror|Musical|Thriller
10124,National Treasure: Book of Secrets,2007,Action|Adventure
10125,There Will Be Blood,2007,Drama
10126,Charlie Wilson's War,2007,Comedy|Drama|War
10128,Walk Hard: The Dewey Cox Story,2007,Comedy|Musical
10133,P.S. I Love You,2007,Comedy|Drama|Romance
10136,Cassandra's Dream,2007,Crime|Drama|Thriller
10139,[Rec],2007,Horror|Thriller
10141,Flawless,2007,Crime|Drama
10145,Cleaner,2007,Crime|Thriller
10146,He Was a Quiet Man,2007,Drama
10154,Sex and Breakfast,2007,Comedy|Drama|Romance
10159,How She Move,2007,Drama
10192,Taxi to the Dark Side,2007,Documentary
10193,Grace Is Gone,2007,Drama
10201,Mongol,2007,Drama|Romance|War
10202,War Dance,2007,Documentary
10204,Diary of the Dead,2007,Fantasy|Horror|Thriller
10208,"Romulus, My Father",2007,Drama
10211,Then She Found Me,2007,Comedy|Drama|Romance
10219,Quiet City,2007,Drama
10225,Youth Without Youth,2007,Drama|Romance|Sci-Fi
10242,99 francs,2007,Comedy
10245,Chapter 27,2007,Crime|Drama
10252,Son of Rambow,2007,Comedy|Drama
10267,Anamorph,2007,Crime|Thriller
10293,Savage Grace,2007,Crime|Drama
10307,And When Did You Last See Your Father?,2007,Drama
10309,Stuck,2007,Horror|Thriller
10310,Chaos Theory,2007,Comedy|Drama|Romance
10324,Roman de gare,2007,Drama|Mystery
10345,Ganes,2007,Drama|Musical
10347,Kabluey,2007,Comedy|Drama
10371,Shotgun Stories,2007,Drama|Thriller
10395,Expired,2007,Comedy|Drama|Romance
10676,Ben X,2007,Drama
10072,Be Kind Rewind,2008,Comedy
10135,27 Dresses,2008,Comedy|Romance
10143,Cloverfield,2008,Action|Mystery|Sci-Fi|Thriller
10144,Mad Money,2008,Comedy|Crime|Thriller
10156,First Sunday,2008,Comedy|Crime
10157,Untraceable,2008,Crime|Thriller
10160,Meet the Spartans,2008,Comedy
10162,Strange Wilderness,2008,Comedy
10163,Over Her Dead Body,2008,Comedy|Fantasy|Romance
10165,Hellboy II: The Golden Army,2008,Action|Adventure|Comedy|Fantasy|Sci-Fi
10167,In Bruges,2008,Comedy|Crime|Drama
10178,Jumper,2008,Adventure|Drama|Sci-Fi|Thriller
10180,"Definitely, Maybe",2008,Comedy|Drama|Romance
10184,Vantage Point,2008,Action|Drama|Thriller
10187,Witless Protection,2008,Comedy
10189,Semi-Pro,2008,Comedy
10194,College Road Trip,2008,Comedy
10197,Doomsday,2008,Action|Drama|Sci-Fi|Thriller
10198,Horton Hears a Who!,2008,Adventure|Animation|Children|Comedy
10213,Miss Pettigrew Lives for a Day,2008,Comedy|Romance
10221,Never Back Down,2008,Action
10223,Drillbit Taylor,2008,Comedy
10227,Smart People,2008,Comedy|Drama|Romance
10229,Leatherheads,2008,Comedy|Drama|Romance
10230,Stop-Loss,2008,Drama|War
10231,Shine a Light,2008,Documentary|IMAX|Musical
10234,Nim's Island,2008,Adventure|Comedy|Fantasy
10236,Forgetting Sarah Marshall,2008,Comedy|Romance
10238,Superhero Movie,2008,Action|Comedy|Sci-Fi
10241,Harold & Kumar Escape from Guantanamo Bay,2008,Adventure|Comedy
10243,Speed Racer,2008,Action|Adventure|Children
10244,Diminished Capacity,2008,Comedy
10247,Where in the World Is Osama Bin Laden?,2008,Documentary
10249,Happy-Go-Lucky,2008,Comedy|Drama
10250,Religulous,2008,Documentary
10257,Deception,2008,Action|Drama|Thriller
10258,Baby Mama,2008,Comedy
10260,Expelled: No Intelligence Allowed,2008,Documentary
10264,Made of Honor,2008,Comedy|Romance
10265,Redbelt,2008,Action|Drama
10268,Taken,2008,Action|Crime|Drama|Thriller
10280,"War, Inc.",2008,Comedy|Crime|Thriller
10283,Indiana Jones and the Kingdom of the Crystal Skull,2008,Action|Adventure|Comedy
10291,Sex and the City,2008,Comedy|Romance
10296,Kung Fu Panda,2008,Action|Animation|Children|Comedy
10305,You Don't Mess with the Zohan,2008,Comedy
10314,Baghead,2008,Comedy
10317,Wanted,2008,Action|Thriller
10318,Hancock,2008,Action|Comedy|Drama|Fantasy
10319,Get Smart,2008,Comedy
10331,Kit Kittredge: An American Girl,2008,Children|Comedy|Drama|Mystery
10332,Gonzo: The Life and Work of Dr. Hunter S. Thompson,2008,Documentary
10344,Mamma Mia!,2008,Comedy|Musical|Romance
10355,Journey to the Center of the Earth,2008,Action|Adventure|Fantasy|Sci-Fi
10356,Meet Dave,2008,Comedy|Sci-Fi
10364,Transsiberian,2008,Crime|Drama|Thriller
10373,Felon,2008,Action|Crime|Drama
10374,Step Brothers,2008,Comedy
10377,American Teen,2008,Documentary
10378,Man on Wire,2008,Documentary|Thriller
10380,Pathology,2008,Crime|Horror|Thriller
10386,Frozen River,2008,Drama
10389,Vicky Cristina Barcelona,2008,Drama
10393,Pineapple Express,2008,Action|Comedy|Crime|Thriller
10397,Hell Ride,2008,Action|Drama|Thriller
10400,Tropic Thunder,2008,Action|Adventure|Comedy|War
10401,Star Wars: The Clone Wars,2008,Action|Adventure|Animation|Sci-Fi
10402,Henry Poole is Here,2008,Drama|Mystery
10406,Hamlet 2,2008,Comedy
10412,Mirrors,2008,Horror|Thriller
10414,Fly Me to the Moon,2008,Adventure|Animation
10419,Burn After Reading,2008,Comedy|Crime
10420,Disaster Movie,2008,Comedy
10421,Babylon A.D.,2008,Action|Adventure|Sci-Fi|Thriller
10422,Traitor,2008,Drama
10430,Bangkok Dangerous,2008,Action|Crime|Thriller
10444,Righteous Kill,2008,Action|Crime|Mystery|Thriller
10472,Eagle Eye,2008,Action|Crime|Thriller
10473,How to Lose Friends & Alienate People,2008,Comedy
10476,Nick and Norah's Infinite Playlist,2008,Comedy|Drama|Romance
10482,Gomorra,2008,Crime|Drama
10491,Rachel Getting Married,2008,Drama|Romance
10492,Body of Lies,2008,Action|Drama|Thriller
10498,Max Payne,2008,Action|Crime|Drama|Thriller
10499,Zack and Miri Make a Porno,2008,Comedy|Drama|Romance
10501,My Best Friend's Girl,2008,Comedy|Romance
10503,"Synecdoche, New York",2008,Comedy|Drama
10519,Pride and Glory,2008,Crime|Drama
10527,RocknRolla,2008,Action|Crime|Drama|Thriller
10536,Madagascar: Escape 2 Africa,2008,Action|Adventure|Animation|Children|Comedy|IMAX
10537,Blindness,2008,Drama|Mystery|Romance|Thriller
10538,Changeling,2008,Crime|Drama|Mystery
10540,Slumdog Millionaire,2008,Comedy|Drama|Romance
10541,Quantum of Solace,2008,Action|Adventure|Thriller
10544,Role Models,2008,Comedy
10549,Sauna,2008,Horror|Mystery
10551,JCVD,2008,Action|Drama|Thriller
10573,Beverly Hills Chihuahua,2008,Adventure|Children|Comedy
10596,Bolt,2008,Action|Adventure|Animation|Children|Comedy
10601,Transporter 3,2008,Action
10604,Fireproof,2008,Drama
10608,Cadillac Records,2008,Drama|Musical
10639,Gran Torino,2008,Action|Drama|Thriller
10640,Frost/Nixon,2008,Drama
10644,Seven Pounds,2008,Drama
10665,Valkyrie,2008,Drama|Thriller|War
10679,Choke,2008,Comedy|Drama
10680,Revolutionary Road,2008,Drama|Romance
